%YAML 1.1
%TAG !u! tag:unity3d.com,2011:
--- !u!29 &1
OcclusionCullingSettings:
  m_ObjectHideFlags: 0
  serializedVersion: 2
  m_OcclusionBakeSettings:
    smallestOccluder: 5
    smallestHole: 0.25
    backfaceThreshold: 100
  m_SceneGUID: 00000000000000000000000000000000
  m_OcclusionCullingData: {fileID: 0}
--- !u!104 &2
RenderSettings:
  m_ObjectHideFlags: 0
  serializedVersion: 9
  m_Fog: 0
  m_FogColor: {r: 0.5, g: 0.5, b: 0.5, a: 1}
  m_FogMode: 3
  m_FogDensity: 0.01
  m_LinearFogStart: 0
  m_LinearFogEnd: 300
  m_AmbientSkyColor: {r: 0.28235295, g: 0.24313726, b: 0.44313726, a: 1}
  m_AmbientEquatorColor: {r: 0.114, g: 0.125, b: 0.133, a: 1}
  m_AmbientGroundColor: {r: 0.047, g: 0.043, b: 0.035, a: 1}
  m_AmbientIntensity: 1
  m_AmbientMode: 3
  m_SubtractiveShadowColor: {r: 0.42, g: 0.478, b: 0.627, a: 1}
  m_SkyboxMaterial: {fileID: 10304, guid: 0000000000000000f000000000000000, type: 0}
  m_HaloStrength: 0.5
  m_FlareStrength: 1
  m_FlareFadeSpeed: 3
  m_HaloTexture: {fileID: 0}
  m_SpotCookie: {fileID: 10001, guid: 0000000000000000e000000000000000, type: 0}
  m_DefaultReflectionMode: 0
  m_DefaultReflectionResolution: 128
  m_ReflectionBounces: 1
  m_ReflectionIntensity: 1
  m_CustomReflection: {fileID: 0}
  m_Sun: {fileID: 0}
  m_IndirectSpecularColor: {r: 0, g: 0, b: 0, a: 1}
  m_UseRadianceAmbientProbe: 0
--- !u!157 &3
LightmapSettings:
  m_ObjectHideFlags: 0
  serializedVersion: 11
  m_GIWorkflowMode: 1
  m_GISettings:
    serializedVersion: 2
    m_BounceScale: 1
    m_IndirectOutputScale: 1
    m_AlbedoBoost: 1
    m_TemporalCoherenceThreshold: 1
    m_EnvironmentLightingMode: 0
    m_EnableBakedLightmaps: 0
    m_EnableRealtimeLightmaps: 0
  m_LightmapEditorSettings:
    serializedVersion: 10
    m_Resolution: 2
    m_BakeResolution: 10
    m_AtlasSize: 512
    m_AO: 0
    m_AOMaxDistance: 1
    m_CompAOExponent: 1
    m_CompAOExponentDirect: 0
    m_Padding: 2
    m_LightmapParameters: {fileID: 0}
    m_LightmapsBakeMode: 1
    m_TextureCompression: 1
    m_FinalGather: 0
    m_FinalGatherFiltering: 1
    m_FinalGatherRayCount: 256
    m_ReflectionCompression: 2
    m_MixedBakeMode: 2
    m_BakeBackend: 1
    m_PVRSampling: 1
    m_PVRDirectSampleCount: 32
    m_PVRSampleCount: 256
    m_PVRBounces: 2
    m_PVRFilterTypeDirect: 0
    m_PVRFilterTypeIndirect: 0
    m_PVRFilterTypeAO: 0
    m_PVRFilteringMode: 1
    m_PVRCulling: 1
    m_PVRFilteringGaussRadiusDirect: 1
    m_PVRFilteringGaussRadiusIndirect: 5
    m_PVRFilteringGaussRadiusAO: 2
    m_PVRFilteringAtrousPositionSigmaDirect: 0.5
    m_PVRFilteringAtrousPositionSigmaIndirect: 2
    m_PVRFilteringAtrousPositionSigmaAO: 1
    m_ShowResolutionOverlay: 1
  m_LightingDataAsset: {fileID: 0}
  m_UseShadowmask: 1
--- !u!196 &4
NavMeshSettings:
  serializedVersion: 2
  m_ObjectHideFlags: 0
  m_BuildSettings:
    serializedVersion: 2
    agentTypeID: 0
    agentRadius: 0.5
    agentHeight: 2
    agentSlope: 45
    agentClimb: 0.4
    ledgeDropHeight: 0
    maxJumpAcrossDistance: 0
    minRegionArea: 2
    manualCellSize: 0
    cellSize: 0.16666667
    manualTileSize: 0
    tileSize: 256
    accuratePlacement: 0
    debug:
      m_Flags: 0
  m_NavMeshData: {fileID: 0}
--- !u!1 &282840810
GameObject:
  m_ObjectHideFlags: 0
  m_PrefabParentObject: {fileID: 0}
  m_PrefabInternal: {fileID: 0}
  serializedVersion: 5
  m_Component:
  - component: {fileID: 282840814}
  - component: {fileID: 282840813}
  - component: {fileID: 282840811}
  m_Layer: 0
  m_Name: Main Camera
  m_TagString: MainCamera
  m_Icon: {fileID: 0}
  m_NavMeshLayer: 0
  m_StaticEditorFlags: 0
  m_IsActive: 1
--- !u!81 &282840811
AudioListener:
  m_ObjectHideFlags: 0
  m_PrefabParentObject: {fileID: 0}
  m_PrefabInternal: {fileID: 0}
  m_GameObject: {fileID: 282840810}
  m_Enabled: 1
--- !u!20 &282840813
Camera:
  m_ObjectHideFlags: 0
  m_PrefabParentObject: {fileID: 0}
  m_PrefabInternal: {fileID: 0}
  m_GameObject: {fileID: 282840810}
  m_Enabled: 1
  serializedVersion: 2
  m_ClearFlags: 2
  m_BackGroundColor: {r: 0.3137255, g: 0.23529412, b: 0.19607843, a: 0}
  m_NormalizedViewPortRect:
    serializedVersion: 2
    x: 0
    y: 0
    width: 1
    height: 1
  near clip plane: 0.3
  far clip plane: 1000
  field of view: 60
  orthographic: 1
  orthographic size: 5
  m_Depth: -1
  m_CullingMask:
    serializedVersion: 2
    m_Bits: 4294967295
  m_RenderingPath: -1
  m_TargetTexture: {fileID: 0}
  m_TargetDisplay: 0
  m_TargetEye: 3
  m_HDR: 1
  m_AllowMSAA: 1
  m_AllowDynamicResolution: 0
  m_ForceIntoRT: 1
  m_OcclusionCulling: 1
  m_StereoConvergence: 10
  m_StereoSeparation: 0.022
--- !u!4 &282840814
Transform:
  m_ObjectHideFlags: 0
  m_PrefabParentObject: {fileID: 0}
  m_PrefabInternal: {fileID: 0}
  m_GameObject: {fileID: 282840810}
  m_LocalRotation: {x: 0.2961981, y: 0.46984634, z: -0.17101005, w: 0.8137977}
  m_LocalPosition: {x: -43, y: 42, z: -25}
  m_LocalScale: {x: 1, y: 1, z: 1}
  m_Children: []
  m_Father: {fileID: 0}
  m_RootOrder: 1
  m_LocalEulerAnglesHint: {x: 40, y: 60, z: 0}
--- !u!1001 &1214874523
Prefab:
  m_ObjectHideFlags: 0
  serializedVersion: 2
  m_Modification:
    m_TransformParent: {fileID: 1803065442}
    m_Modifications:
    - target: {fileID: 496482, guid: f7167ad2844254441b40b8a300b4f1fe, type: 2}
      propertyPath: m_LocalPosition.x
      value: -0.5
      objectReference: {fileID: 0}
    - target: {fileID: 496482, guid: f7167ad2844254441b40b8a300b4f1fe, type: 2}
      propertyPath: m_LocalPosition.y
      value: 0
      objectReference: {fileID: 0}
    - target: {fileID: 496482, guid: f7167ad2844254441b40b8a300b4f1fe, type: 2}
      propertyPath: m_LocalPosition.z
      value: -0.75
      objectReference: {fileID: 0}
    - target: {fileID: 496482, guid: f7167ad2844254441b40b8a300b4f1fe, type: 2}
      propertyPath: m_LocalRotation.x
      value: -0.7071062
      objectReference: {fileID: 0}
    - target: {fileID: 496482, guid: f7167ad2844254441b40b8a300b4f1fe, type: 2}
      propertyPath: m_LocalRotation.y
      value: 0.000000022351742
      objectReference: {fileID: 0}
    - target: {fileID: 496482, guid: f7167ad2844254441b40b8a300b4f1fe, type: 2}
      propertyPath: m_LocalRotation.z
      value: -0.00000007038021
      objectReference: {fileID: 0}
    - target: {fileID: 496482, guid: f7167ad2844254441b40b8a300b4f1fe, type: 2}
      propertyPath: m_LocalRotation.w
      value: 0.70710737
      objectReference: {fileID: 0}
    - target: {fileID: 496482, guid: f7167ad2844254441b40b8a300b4f1fe, type: 2}
      propertyPath: m_RootOrder
      value: 1
      objectReference: {fileID: 0}
    - target: {fileID: 19895962, guid: f7167ad2844254441b40b8a300b4f1fe, type: 2}
      propertyPath: InitialModule.startSizeY.minMaxState
      value: 3
      objectReference: {fileID: 0}
    - target: {fileID: 19895962, guid: f7167ad2844254441b40b8a300b4f1fe, type: 2}
      propertyPath: InitialModule.startSizeZ.minMaxState
      value: 3
      objectReference: {fileID: 0}
    - target: {fileID: 148586, guid: f7167ad2844254441b40b8a300b4f1fe, type: 2}
      propertyPath: m_Name
      value: LeftDustTrail
      objectReference: {fileID: 0}
    m_RemovedComponents: []
  m_ParentPrefab: {fileID: 100100000, guid: f7167ad2844254441b40b8a300b4f1fe, type: 2}
  m_IsPrefabParent: 0
--- !u!1001 &1429945942
Prefab:
  m_ObjectHideFlags: 0
  serializedVersion: 2
  m_Modification:
    m_TransformParent: {fileID: 1803065442}
    m_Modifications:
    - target: {fileID: 496482, guid: f7167ad2844254441b40b8a300b4f1fe, type: 2}
      propertyPath: m_LocalPosition.x
      value: 0.5
      objectReference: {fileID: 0}
    - target: {fileID: 496482, guid: f7167ad2844254441b40b8a300b4f1fe, type: 2}
      propertyPath: m_LocalPosition.y
      value: 0
      objectReference: {fileID: 0}
    - target: {fileID: 496482, guid: f7167ad2844254441b40b8a300b4f1fe, type: 2}
      propertyPath: m_LocalPosition.z
      value: -0.75
      objectReference: {fileID: 0}
    - target: {fileID: 496482, guid: f7167ad2844254441b40b8a300b4f1fe, type: 2}
      propertyPath: m_LocalRotation.x
      value: -0.7071062
      objectReference: {fileID: 0}
    - target: {fileID: 496482, guid: f7167ad2844254441b40b8a300b4f1fe, type: 2}
      propertyPath: m_LocalRotation.y
      value: 0.000000022351742
      objectReference: {fileID: 0}
    - target: {fileID: 496482, guid: f7167ad2844254441b40b8a300b4f1fe, type: 2}
      propertyPath: m_LocalRotation.z
      value: -0.00000007038021
      objectReference: {fileID: 0}
    - target: {fileID: 496482, guid: f7167ad2844254441b40b8a300b4f1fe, type: 2}
      propertyPath: m_LocalRotation.w
      value: 0.70710737
      objectReference: {fileID: 0}
    - target: {fileID: 496482, guid: f7167ad2844254441b40b8a300b4f1fe, type: 2}
      propertyPath: m_RootOrder
      value: 2
      objectReference: {fileID: 0}
    - target: {fileID: 19895962, guid: f7167ad2844254441b40b8a300b4f1fe, type: 2}
      propertyPath: InitialModule.startSizeY.minMaxState
      value: 3
      objectReference: {fileID: 0}
    - target: {fileID: 19895962, guid: f7167ad2844254441b40b8a300b4f1fe, type: 2}
      propertyPath: InitialModule.startSizeZ.minMaxState
      value: 3
      objectReference: {fileID: 0}
    - target: {fileID: 496482, guid: f7167ad2844254441b40b8a300b4f1fe, type: 2}
      propertyPath: m_LocalScale.y
      value: 0.99999976
      objectReference: {fileID: 0}
    - target: {fileID: 496482, guid: f7167ad2844254441b40b8a300b4f1fe, type: 2}
      propertyPath: m_LocalScale.z
      value: 0.99999976
      objectReference: {fileID: 0}
    - target: {fileID: 148586, guid: f7167ad2844254441b40b8a300b4f1fe, type: 2}
      propertyPath: m_Name
      value: RightDustTrail
      objectReference: {fileID: 0}
    m_RemovedComponents: []
  m_ParentPrefab: {fileID: 100100000, guid: f7167ad2844254441b40b8a300b4f1fe, type: 2}
  m_IsPrefabParent: 0
--- !u!1001 &1614188967
Prefab:
  m_ObjectHideFlags: 0
  serializedVersion: 2
  m_Modification:
    m_TransformParent: {fileID: 0}
    m_Modifications:
    - target: {fileID: 488946, guid: 1cd1bdb2203012a40ab12a0d2fd7aa88, type: 2}
      propertyPath: m_LocalPosition.x
      value: 0
      objectReference: {fileID: 0}
    - target: {fileID: 488946, guid: 1cd1bdb2203012a40ab12a0d2fd7aa88, type: 2}
      propertyPath: m_LocalPosition.y
      value: 0
      objectReference: {fileID: 0}
    - target: {fileID: 488946, guid: 1cd1bdb2203012a40ab12a0d2fd7aa88, type: 2}
      propertyPath: m_LocalPosition.z
      value: 0
      objectReference: {fileID: 0}
    - target: {fileID: 488946, guid: 1cd1bdb2203012a40ab12a0d2fd7aa88, type: 2}
      propertyPath: m_LocalRotation.x
      value: -0
      objectReference: {fileID: 0}
    - target: {fileID: 488946, guid: 1cd1bdb2203012a40ab12a0d2fd7aa88, type: 2}
      propertyPath: m_LocalRotation.y
      value: -0
      objectReference: {fileID: 0}
    - target: {fileID: 488946, guid: 1cd1bdb2203012a40ab12a0d2fd7aa88, type: 2}
      propertyPath: m_LocalRotation.z
      value: -0
      objectReference: {fileID: 0}
    - target: {fileID: 488946, guid: 1cd1bdb2203012a40ab12a0d2fd7aa88, type: 2}
      propertyPath: m_LocalRotation.w
      value: 1
      objectReference: {fileID: 0}
    - target: {fileID: 488946, guid: 1cd1bdb2203012a40ab12a0d2fd7aa88, type: 2}
      propertyPath: m_RootOrder
      value: 0
      objectReference: {fileID: 0}
    m_RemovedComponents: []
  m_ParentPrefab: {fileID: 100100000, guid: 1cd1bdb2203012a40ab12a0d2fd7aa88, type: 2}
  m_IsPrefabParent: 0
--- !u!1001 &1803065440
Prefab:
  m_ObjectHideFlags: 0
  serializedVersion: 2
  m_Modification:
    m_TransformParent: {fileID: 0}
    m_Modifications:
    - target: {fileID: 4052591723452334, guid: 87d17de73821b4e7e9814f5e6c9e3870, type: 2}
      propertyPath: m_LocalPosition.x
      value: -0
      objectReference: {fileID: 0}
    - target: {fileID: 4052591723452334, guid: 87d17de73821b4e7e9814f5e6c9e3870, type: 2}
      propertyPath: m_LocalPosition.y
      value: 0
      objectReference: {fileID: 0}
    - target: {fileID: 4052591723452334, guid: 87d17de73821b4e7e9814f5e6c9e3870, type: 2}
      propertyPath: m_LocalPosition.z
      value: 0
      objectReference: {fileID: 0}
    - target: {fileID: 4052591723452334, guid: 87d17de73821b4e7e9814f5e6c9e3870, type: 2}
      propertyPath: m_LocalRotation.x
      value: 0.000000021855694
      objectReference: {fileID: 0}
    - target: {fileID: 4052591723452334, guid: 87d17de73821b4e7e9814f5e6c9e3870, type: 2}
      propertyPath: m_LocalRotation.y
      value: 0
      objectReference: {fileID: 0}
    - target: {fileID: 4052591723452334, guid: 87d17de73821b4e7e9814f5e6c9e3870, type: 2}
      propertyPath: m_LocalRotation.z
      value: -0
      objectReference: {fileID: 0}
    - target: {fileID: 4052591723452334, guid: 87d17de73821b4e7e9814f5e6c9e3870, type: 2}
      propertyPath: m_LocalRotation.w
      value: 1
      objectReference: {fileID: 0}
    - target: {fileID: 4052591723452334, guid: 87d17de73821b4e7e9814f5e6c9e3870, type: 2}
      propertyPath: m_RootOrder
      value: 2
      objectReference: {fileID: 0}
    m_RemovedComponents: []
  m_ParentPrefab: {fileID: 100100000, guid: 87d17de73821b4e7e9814f5e6c9e3870, type: 2}
  m_IsPrefabParent: 0
--- !u!1 &1803065441 stripped
GameObject:
  m_PrefabParentObject: {fileID: 1931007930755820, guid: 87d17de73821b4e7e9814f5e6c9e3870,
    type: 2}
  m_PrefabInternal: {fileID: 1803065440}
--- !u!4 &1803065442 stripped
Transform:
  m_PrefabParentObject: {fileID: 4052591723452334, guid: 87d17de73821b4e7e9814f5e6c9e3870,
    type: 2}
  m_PrefabInternal: {fileID: 1803065440}
--- !u!114 &1803065443
MonoBehaviour:
  m_ObjectHideFlags: 0
  m_PrefabParentObject: {fileID: 0}
  m_PrefabInternal: {fileID: 0}
  m_GameObject: {fileID: 1803065441}
  m_Enabled: 1
  m_EditorHideFlags: 0
  m_Script: {fileID: 11500000, guid: 29af3199e11b72e47b41ff380db540fd, type: 3}
  m_Name: 
  m_EditorClassIdentifier: 
  m_PlayerNumber: 1
  m_Speed: 12
  m_TurnSpeed: 180
  m_MovementAudio: {fileID: 1803065445}
  m_EngineIdling: {fileID: 8300000, guid: 4932ab25b84dd7649b80af68a9660ddc, type: 3}
  m_EngineDriving: {fileID: 8300000, guid: d7ca9fb5aa30155449192b23d7fb3336, type: 3}
  m_PitchRange: 0.2
--- !u!82 &1803065445 stripped
AudioSource:
  m_PrefabParentObject: {fileID: 82284891040956920, guid: 87d17de73821b4e7e9814f5e6c9e3870,
    type: 2}
  m_PrefabInternal: {fileID: 1803065440}
